ConditionsOverride = Conditions/Online/Velo/MotionSystem := double ResolPosRC = -29.0 ; double ResolPosLA = 29.0 ;  double ResolPosY = 0.0 ;
Ecut value = 5.0
Gauss run option selected for Upgraded RICH  =   GTB
Upgrade RICH simulation for the data in year =  2022
Upgrade RICH simulation now configured
ApplicationMgr    SUCCESS
====================================================================================================================================
====================================================================================================================================
ApplicationMgr       INFO Application Manager Configured successfully
ToolSvc.GitDDDB            INFO opening Git repository '/cvmfs/lhcb.cern.ch/lib/lhcb/git-conddb/DDDB.git'
ToolSvc.GitDDDB            INFO using commit 'upgrade/dddb-20220323' corresponding to b8c14122084e772ab1e6d280de8dffc0e5a3d3f3
ToolSvc.GitSIMCOND         INFO opening Git repository '/cvmfs/lhcb.cern.ch/lib/lhcb/git-conddb/SIMCOND.git'
ToolSvc.GitSIMCOND         INFO using commit 'upgrade/sim-20220509-vc-md100' corresponding to 0ef47448ae6cb333193f69d9296b8333c298f699
DetectorPersistencySvc     INFO Added successfully Conversion service:XmlCnvSvc
DetectorDataSvc         SUCCESS Detector description database: git:/lhcb.xml
 Geant4 version Name: geant4-10-06-patch-02    (29-May-2020)
                       Copyright : Geant4 Collaboration
                      References : NIM A 506 (2003), 250-303
                                 : IEEE-TNS 53 (2006), 270-278
                                 : NIM A 835 (2016), 186-225
                             WWW : http://geant4.org/
SimulationSvc              INFO Loading simulation attributes file ".../SimulationRICHAerogelOff.xml" ...
GiGa.ModularPL             INFO GiGaPhysListModular initializing
GiGa.ModularPL             INFO Registered GiGa.ModularPL.EmOpt1NoCutsPhysics
GiGa.ModularPL             INFO Registered GiGa.ModularPL.DecayPhysics
GiGa.ModularPL             INFO Registered GiGa.ModularPL.EmExtraPhysics
GiGa.ModularPL             INFO Registered GiGa.ModularPL.IonPhysics
GiGa.ModularPL             INFO Registered GiGa.ModularPL.ElasticPhysics
GiGa.ModularPL             INFO Registered GiGa.ModularPL.FTFP_BERTPhysics
GiGa.ModularPL             INFO Registered GiGa.ModularPL.StoppingPhysics
GiGa.ModularPL             INFO Registered GiGa.ModularPL.NeutronTrkCut
GiGa.ModularPL             INFO Registered GiGa.ModularPL.GiGaPhysConstructorOpCkv
GiGa.ModularPL             INFO Registered GiGa.ModularPL.GiGaPhysConstructorPhotoDetector
GiGa.ModularPL             INFO Registered GiGa.ModularPL.GiGaPhysUnknownParticles
-------- WWWW ------- G4Exception-START -------- WWWW -------
*** G4Exception : PART102
      issued by : G4ParticleDefintion::G4ParticleDefintion
Strange PDGEncoding
-------- WWWW -------- G4Exception-END --------- WWWW -------
-------- WWWW ------- G4Exception-START -------- WWWW -------
*** G4Exception : PART102
      issued by : G4ParticleDefintion::G4ParticleDefintion
Strange PDGEncoding
-------- WWWW -------- G4Exception-END --------- WWWW -------
-------- WWWW ------- G4Exception-START -------- WWWW -------
*** G4Exception : PART102
      issued by : G4ParticleDefintion::G4ParticleDefintion
Strange PDGEncoding
-------- WWWW -------- G4Exception-END --------- WWWW -------
-------- WWWW ------- G4Exception-START -------- WWWW -------
*** G4Exception : PART102
      issued by : G4ParticleDefintion::G4ParticleDefintion
Strange PDGEncoding
-------- WWWW -------- G4Exception-END --------- WWWW -------
-------- WWWW ------- G4Exception-START -------- WWWW -------
*** G4Exception : PART102
      issued by : G4ParticleDefintion::G4ParticleDefintion
Strange PDGEncoding
-------- WWWW -------- G4Exception-END --------- WWWW -------
-------- WWWW ------- G4Exception-START -------- WWWW -------
*** G4Exception : PART102
      issued by : G4ParticleDefintion::G4ParticleDefintion
Strange PDGEncoding
-------- WWWW -------- G4Exception-END --------- WWWW -------
-------- WWWW ------- G4Exception-START -------- WWWW -------
*** G4Exception : PART102
      issued by : G4ParticleDefintion::G4ParticleDefintion
Strange PDGEncoding
-------- WWWW -------- G4Exception-END --------- WWWW -------
-------- WWWW ------- G4Exception-START -------- WWWW -------
*** G4Exception : PART104
      issued by : G4ParticleDefintion::G4ParticleDefintion
Inconsistent spin against PDG code
-------- WWWW -------- G4Exception-END --------- WWWW -------
-------- WWWW ------- G4Exception-START -------- WWWW -------
*** G4Exception : PART102
      issued by : G4ParticleDefintion::G4ParticleDefintion
Strange PDGEncoding
-------- WWWW -------- G4Exception-END --------- WWWW -------
-------- WWWW ------- G4Exception-START -------- WWWW -------
*** G4Exception : PART102
      issued by : G4ParticleDefintion::G4ParticleDefintion
Strange PDGEncoding
-------- WWWW -------- G4Exception-END --------- WWWW -------
-------- WWWW ------- G4Exception-START -------- WWWW -------
*** G4Exception : PART102
      issued by : G4ParticleDefintion::G4ParticleDefintion
Strange PDGEncoding
-------- WWWW -------- G4Exception-END --------- WWWW -------
-------- WWWW ------- G4Exception-START -------- WWWW -------
*** G4Exception : PART102
      issued by : G4ParticleDefintion::G4ParticleDefintion
Strange PDGEncoding
-------- WWWW -------- G4Exception-END --------- WWWW -------
-------- WWWW ------- G4Exception-START -------- WWWW -------
*** G4Exception : PART102
      issued by : G4ParticleDefintion::G4ParticleDefintion
Strange PDGEncoding
-------- WWWW -------- G4Exception-END --------- WWWW -------
-------- WWWW ------- G4Exception-START -------- WWWW -------
*** G4Exception : PART102
      issued by : G4ParticleDefintion::G4ParticleDefintion
Strange PDGEncoding
-------- WWWW -------- G4Exception-END --------- WWWW -------
-------- WWWW ------- G4Exception-START -------- WWWW -------
*** G4Exception : PART102
      issued by : G4ParticleDefintion::G4ParticleDefintion
Strange PDGEncoding
-------- WWWW -------- G4Exception-END --------- WWWW -------
-------- WWWW ------- G4Exception-START -------- WWWW -------
*** G4Exception : PART102
      issued by : G4ParticleDefintion::G4ParticleDefintion
Strange PDGEncoding
-------- WWWW -------- G4Exception-END --------- WWWW -------
-------- WWWW ------- G4Exception-START -------- WWWW -------
*** G4Exception : PART102
      issued by : G4ParticleDefintion::G4ParticleDefintion
Strange PDGEncoding
-------- WWWW -------- G4Exception-END --------- WWWW -------
-------- WWWW ------- G4Exception-START -------- WWWW -------
*** G4Exception : PART102
      issued by : G4ParticleDefintion::G4ParticleDefintion
Strange PDGEncoding
-------- WWWW -------- G4Exception-END --------- WWWW -------
-------- WWWW ------- G4Exception-START -------- WWWW -------
*** G4Exception : PART102
      issued by : G4ParticleDefintion::G4ParticleDefintion
Strange PDGEncoding
-------- WWWW -------- G4Exception-END --------- WWWW -------
-------- WWWW ------- G4Exception-START -------- WWWW -------
*** G4Exception : PART102
      issued by : G4ParticleDefintion::G4ParticleDefintion
Strange PDGEncoding
-------- WWWW -------- G4Exception-END --------- WWWW -------
-------- WWWW ------- G4Exception-START -------- WWWW -------
*** G4Exception : PART102
      issued by : G4ParticleDefintion::G4ParticleDefintion
Strange PDGEncoding
-------- WWWW -------- G4Exception-END --------- WWWW -------
-------- WWWW ------- G4Exception-START -------- WWWW -------
*** G4Exception : PART102
      issued by : G4ParticleDefintion::G4ParticleDefintion
Strange PDGEncoding
-------- WWWW -------- G4Exception-END --------- WWWW -------
-------- WWWW ------- G4Exception-START -------- WWWW -------
*** G4Exception : PART102
      issued by : G4ParticleDefintion::G4ParticleDefintion
Strange PDGEncoding
-------- WWWW -------- G4Exception-END --------- WWWW -------
GiGa                       INFO Used Physics List Object is GiGaPhysListModular/GiGa.ModularPL
GiGa                       INFO Stacking Action Object is not required to be loaded
EventClockSvc.FakeEve...   INFO Event times generated from 0 with steps of 0
EventClockSvc.FakeEve...   INFO Run numbers generated from 0 every 0 events
CkvG4TrackActionPhotOpt    INFO  Rich PhotoDet (PMT)  Max QE from DB and UsedInThisRun are  0.6    0.6
GiGa                       INFO Used Tracking Action Object is GiGaTrackActionSequence/GiGa.TrackSeq
GiGa                       INFO Used  Stepping Action Object is GiGaStepActionSequence/GiGa.StepSeq
RootHistSvc                INFO Writing ROOT histograms to: UndefinedROOTOutputFileName
HistogramPersistencySvc    INFO Added successfully Conversion service:RootHistSvc
HistogramDataSvc           INFO Added stream file:data/gausscalo as GaussCalo
GiGa                       INFO Used  Event Action Object is GiGaEventActionSequence/GiGa.EventSeq
GiGa                       INFO Used  Run Action Object is GiGaRunActionSequence/GiGa.RunSeq
DeFTDetector               INFO Current FT geometry version =   64
GaussGeo                   INFO ============================================
GaussGeo                   INFO =  useAlignment: 1
GaussGeo                   INFO =  alignAll: 1
GaussGeo                   INFO =  alignDetsNames:
GaussGeo                   INFO =    None
GaussGeo                   INFO ============================================
--- Warning from G4Material::G4Material() define a material with density=0 is not allowed.
 The material /dd/Materials/Vacuum will be constructed with the default minimal density: 1e-25g/cm3
MagneticFieldSvc           INFO Opened magnetic field file : FieldMap/v5r7/cdf/field.v5r0.c1.down.cdf
MagneticFieldSvc           INFO Opened magnetic field file : FieldMap/v5r7/cdf/field.v5r0.c2.down.cdf
MagneticFieldSvc           INFO Opened magnetic field file : FieldMap/v5r7/cdf/field.v5r0.c3.down.cdf
MagneticFieldSvc           INFO Opened magnetic field file : FieldMap/v5r7/cdf/field.v5r0.c4.down.cdf
MagneticFieldSvc           INFO Map scaled by factor 1 with polarity internally used: -1 signed relative current: -1
GaussGeo.FieldMgr          INFO Minimum and Maximum Epsilon Step : 5e-05 0.001
GaussGeo                   INFO Global 'Field Manager' is set to 'GiGaFieldMgr/GaussGeo.FieldMgr'
GaussGeo                   INFO Global 'G4Field Manager' is set to 'G4FieldManager'
GaussGeo                   INFO Global 'G4MagneticField' is set to 'GiGaMagFieldGlobal'
GaussGeo                   INFO Global 'G4MagIntegratorStepper' is set to 'G4ClassicalRK4'
GaussGeo                WARNING Multiple indistinguishable misalignable detector elements found inside '/dd/Geometry/BeforeMagnetRegion/UT/Sensors/lvSectorNorm'!
GaussGeo                WARNING Multiple indistinguishable misalignable detector elements found inside '/dd/Geometry/BeforeMagnetRegion/UT/Sensors/lvSectorDual'!
GaussGeo                WARNING Multiple indistinguishable misalignable detector elements found inside '/dd/Geometry/BeforeMagnetRegion/UT/Sensors/lvSectorQuad'!
--- Warning from G4Material::G4Material() define a material with density=0 is not allowed.
 The material /dd/Materials/RichMaterials/RichPMTVacuum will be constructed with the default minimal density: 1e-25g/cm3
--- Warning from G4Material::G4Material() define a material with density=0 is not allowed.
 The material /dd/Materials/RichMaterials/RichPMTPhCathodeMaterial will be constructed with the default minimal density: 1e-25g/cm3
GaussGeo.ZeroField         INFO createFieldMgr(): null magnetic field
RFileCnv                   INFO opening Root file "data/gausscalo.root" for reading
GaussGeo                WARNING Multiple indistinguishable misalignable detector elements found inside '/dd/Geometry/AfterMagnetRegion/T/FT/Layers/lvLayer5X1'!
GaussGeo                WARNING Multiple indistinguishable misalignable detector elements found inside '/dd/Geometry/AfterMagnetRegion/T/FT/Layers/lvLayer5U'!
GaussGeo                WARNING Multiple indistinguishable misalignable detector elements found inside '/dd/Geometry/AfterMagnetRegion/T/FT/Layers/lvLayer5V'!
GaussGeo                WARNING Multiple indistinguishable misalignable detector elements found inside '/dd/Geometry/AfterMagnetRegion/T/FT/Layers/lvLayer5X2'!
GaussGeo                WARNING Multiple indistinguishable misalignable detector elements found inside '/dd/Geometry/AfterMagnetRegion/T/FT/Stations/lvStation5'!
GaussGeo                   INFO ================================
GaussGeo                   INFO =    Converted objects
GaussGeo                   INFO =
GaussGeo                   INFO =    DataObjects : 	3
GaussGeo                   INFO =    DetElements : 	19
GaussGeo                   INFO =    Elements : 	381
GaussGeo                   INFO =    Isotopes : 	2
GaussGeo                   INFO =    LAssemblies : 	760
GaussGeo                   INFO =    LVolumes : 	6361
GaussGeo                   INFO =    Mixtures : 	100
GaussGeo                   INFO =    Surfaces : 	16032
GaussGeo                   INFO =
GaussGeo                   INFO =    Constructed figures
GaussGeo                   INFO =
GaussGeo                   INFO =    G4Box : 	5859
GaussGeo                   INFO =    G4Cons : 	121
GaussGeo                   INFO =    G4Polycone : 	20
GaussGeo                   INFO =    G4Sphere : 	128
GaussGeo                   INFO =    G4Trap : 	665
GaussGeo                   INFO =    G4Trd : 	17
GaussGeo                   INFO =    G4Tubs : 	466
GaussGeo                   INFO ================================
GiGa                       INFO GiGa User Interface session is not required to be launched
GiGa                       INFO Visualisation Manager is not required to be created.
RndmGenSvc.Engine          INFO Generator engine type:CLHEP::RanluxEngine
RndmGenSvc.Engine          INFO Current Seed:1234567 Luxury:3
RndmGenSvc.Engine          INFO This is the GEANT4 engine!
RndmGenSvc                 INFO Using Random engine:HepRndm::Engine<CLHEP::RanluxEngine>
GaussSequencer             INFO Member list: GaudiSequencer/Generator, GaudiSequencer/Simulation
Generator                  INFO Member list: GaudiSequencer/GeneratorSlotMainSeq
GeneratorSlotMainSeq       INFO Member list: GenInit/GaussGen, Generation, GaudiSequencer/GenMonitor
GaussGen                SUCCESS ==================================================================
GaussGen                SUCCESS Requested to process 1 events
GaussGen                SUCCESS ==================================================================
GaussGen                   INFO Create BeamForInitialization
GaussGen                   INFO Beam Parameters :
GaussGen                   INFO Energy = 7 TeV
GaussGen                   INFO Bunch length RMS = 90 mm
GaussGen                   INFO Normalized emittance = 0.0038 mm
GaussGen                   INFO Revolution frequency = 11.245 kHz
GaussGen                   INFO Total cross-section assumed = 102.5 mb
GaussGen                   INFO Horizontal crossing angle = -0.385 mrad
GaussGen                   INFO Vertical crossing angle = 0 mrad
GaussGen                   INFO Horizontal beam line angle = 0 mrad
GaussGen                   INFO Vertical beam line angle = 0 mrad
GaussGen                   INFO beta star = 2.79 m
GaussGen                   INFO Bunch spacing = 50 ns
GaussGen                   INFO Beam spot = (0,0,0) mm
GaussGen                   INFO Luminosity = 4.169e+29 /cm2/s
GaussGen                   INFO Nu = 3.80011
GaussGen                   INFO emittance = 5.09348e-07
GaussGen                   INFO Luminous region = ( 0.026656, 0.026656, 63.6396 ), mm
Message from PHCORK(MODCOR):: initialization
MODOP=5 -- corrects Energy from mass+flow
                            =========================
                              PHOTOS, Version:  3.56
                              Released at:  3/5/14
                            =========================
                     Photos QED corrections in Particle Decays
           Monte Carlo Program - by E. Barberio, B. van Eijk and Z. Was
           From version 2.09   - by P. Golonka and Z. Was
           From version 3.00   - by N. Davidson, T. Przedzinski and Z. Was
                  Internal (default) input parameters:
                    INTERF= 1 ISEC= 0 ITRE= 0 IEXP= 1 IFTOP= 1 IFW= 1
                    ALPHA_QED= 0x1.de3d3945c2bf2p-8 XPHCUT= 0x1.ad7f29abcaf48p-24
                    Option with interference is active
                    Option with exponentiation is active EPSEXP=0x1.a36e2eb1c432dp-14
                    Emision in t tbar production is active
                    Correction wt in decay of W is active
          WARNING:  /HEPEVT/ is not anymore used.
MODOP=2 -- blocks emission in Kl  to gamma e+e-: DEFAULT
MODOP=2 -- blocks emission in pi0 to gamma e+e-: DEFAULT
 IPHQRK_setQarknoEmission MODOP=1 -- blocks emission from light quarks:  DEFAULT
Message from PHCORK(MODCOR):: initialization
MODOP=5 -- corrects Energy from mass+flow
 *------------------------------------------------------------------------------------*
 *------------------------------------------------------------------------------------*
 *************************************
 *     TAUOLA C++ Interface v1.1.6   *
 *-----------------------------------*
 *                                   *
 *   (c) Nadia    Davidson,   (1,2)  *
 *   (c) Gizo     Nanava,     (3)    *
 *       Tomasz   Przedzinski,(4)    *
 *       Elzbieta Richter-Was,(2,4)  *
 *       Zbigniew Was         (2,5)  *
 *                                   *
 *  1) Unimelb, Melbourne, Australia *
 *  2)     INP, Krakow, Poland       *
 *  3) University Bonn, Germany      *
 *  4)      UJ, Krakow, Poland       *
 *  5)    CERN, Geneva, Switzerland  *
 *************************************
  In F3pi: chpt + 1 resonance + 2 resonance (RchT)
  KORB: rho/rhop -> pi-pi0 mixing:
  KORB: rho   = 0.769900 0.151200
  KORB: rhop  = 1.370000 0.510000 -0.110000
  KORB: K*/K*prime -> Kpi mixing:
  KORB: kstp  = 1.700000 0.235000 -0.038000
  KORB: a1/a1prime -> 3pi, KKpi mixing:
  KORB: a1    = 1.275000 0.700000
  KORB: a1prim= 1.461000 0.250000 0.000000
  KORB: K1A/K1B -> Kpipi mixing:
  KORB: K1A   = 1.270000 0.090000 1.000000
  KORB: K1B   = 1.402000 0.174000 0.800000
  KORB: rho/rhop/rhopp -> 4pi mixing:
  KORB: rho   = 0.769900 0.151200
  KORB: rhopp = 1.465000 0.310000 -0.110000
  KORB: rhoppp= 1.700000 0.235000 -0.110000
  KORB: 3PI-PI0 PARAMS: 0.000000 0.124200 0.160400 0.271100 0.444300
  KORB: PI-3PI0 PARAMS: 0.000000 1.000000
Reading SANC input files.
File 'table1-1.txt'  missing... skipped.
File 'table2-2.txt'  missing... skipped.
File 'table11-11.txt' missing... skipped.
Generation.Inclusive....SUCCESS ==================================================================
Generation.Inclusive....SUCCESS Using as production engine Pythia8Production
Generation.Inclusive....SUCCESS ==================================================================
Generation.Inclusive....SUCCESS Using pT Damping hook
Generation.Inclusive....WARNING The threshold mass for particle with ID 545 is 7.16481 GeV but its nominal mass is 6.768 GeV; clearing its decay channels.
Generation.Inclusive....WARNING The threshold mass for particle with ID 10541 is 7.14672 GeV but its nominal mass is 6.706 GeV; clearing its decay channels.
Generation.Inclusive....WARNING The threshold mass for particle with ID 10543 is 7.19194 GeV but its nominal mass is 6.741 GeV; clearing its decay channels.
Generation.Inclusive....WARNING The threshold mass for particle with ID 20543 is 7.19194 GeV but its nominal mass is 6.75 GeV; clearing its decay channels.
LHAPDF 6.2.3 loading .../LHAPDFSets/v62r3/data/CT09MCS/CT09MCS_0000.dat
CT09MCS PDF set, member #0, version 1; LHAPDF ID = 10770
 PYTHIA Warning in MultipartonInteractions::init: maximum increased by factor 5.358
Generation.Inclusive       INFO Generating Inclusive events of Omega_b~+ Xi'_b~0 Xi'_b~+ Xi_b~0 Sigma_b~- Sigma_b~0 Xi_b~+ Lambda_b~0 Sigma_b~+ B_c- B_s~0 B- B~0 B0 B+ B_s0 B_c+ Sigma_b- Lambda_b0 Xi_b- Sigma_b0 Sigma_b+ Xi_b0 Xi'_b- Xi'_b0 Omega_b-
Generation.BeamSpotSm...   INFO Smearing of interaction point with Gaussian distribution
Generation              SUCCESS ==================================================================
Generation              SUCCESS Requested to generate EventType 10000000
Generation              SUCCESS ==================================================================
GenMonitor                 INFO Member list: GenMonitorAlg
GenMonitorAlg              INFO Monitor will be applied to all events in container /Event/Gen/HepMCEvents
Simulation                 INFO Member list: GiGaDataStoreAlgorithm/GiGaStore, GaudiSequencer/MainEventSeq
MainEventSeq               INFO Member list: SimInit/MainEventGaussSim, GaudiSequencer/MainSimulation
MainEventGaussSim       SUCCESS ==================================================================
MainEventGaussSim       SUCCESS Requested to process 1 events
MainEventGaussSim       SUCCESS ==================================================================
MainSimulation             INFO Member list: GaudiSequencer/MakeMainSim, GaudiSequencer/SimMonitor
MakeMainSim                INFO Member list: GenerationToSimulation/GenToSim, GiGaFlushAlgorithm/GiGaFlush, GiGaCheckEventStatus/GiGaCheckEvent, SimulationToMCTruth/SimToMCTruth, GaudiSequencer/DetectorsHits, GaudiSequencer/MainEventDataPacking
DetectorsHits              INFO Member list: GetTrackerHitsAlg/GetVPHits, GetTrackerHitsAlg/GetUTHits, GetTrackerHitsAlg/GetFTHits, GaudiSequencer/RichHits, GetCaloHitsAlg/GetEcalHits, GetCaloHitsAlg/GetHcalHits, GetTrackerHitsAlg/GetMuonHits
RichHits                   INFO Member list: GetMCCkvHitsAlg/GetRichHits, GetMCCkvOpticalPhotonsAlg/GetRichPhotons, GetMCCkvSegmentsAlg/GetRichSegments, GetMCCkvTracksAlg/GetRichTracks, Rich::MC::MCPartToMCRichTrackAlg/MCPartToMCRichTrack, Rich::MC::MCRichHitToMCRichOpPhotAlg/MCRichHitToMCRichOpPhot
GetRichHits                INFO Filling 'MC/Rich/Hits' from G4 collections 'Rich1TopHC' 'Rich1BotHC' 'Rich2LeftHC' 'Rich2RightHC' 'Rich2LeftGrandHC' 'Rich2RightGrandHC'
GetRichHits                INFO Using Rich1 Rich2 Detectors
GetRichPhotons             INFO Filling 'MC/Rich/OpticalPhotons' from G4 collections 'Rich1TopHC' 'Rich1BotHC' 'Rich2LeftHC' 'Rich2RightHC' 'Rich2LeftGrandHC' 'Rich2RightGrandHC'
GetRichPhotons             INFO Using Rich1 Rich2 Detectors
GetRichSegments            INFO Filling 'MC/Rich/Segments' from G4 collections 'Rich1TopHC' 'Rich1BotHC' 'Rich2LeftHC' 'Rich2RightHC' 'Rich2LeftGrandHC' 'Rich2RightGrandHC'
GetRichSegments            INFO Using Rich1 Rich2 Detectors
GetRichTracks              INFO Filling 'MC/Rich/Tracks' from G4 collections 'Rich1TopHC' 'Rich1BotHC' 'Rich2LeftHC' 'Rich2RightHC' 'Rich2LeftGrandHC' 'Rich2RightGrandHC'
GetRichTracks              INFO Using Rich1 Rich2 Detectors
MainEventDataPacking       INFO Member list: PackMCParticle, PackMCVertex, MCVPHitPacker, MCUTHitPacker, MCFTHitPacker, MCMuonHitPacker, MCEcalHitPacker, MCHcalHitPacker, MCRichHitPacker, MCRichOpticalPhotonPacker/MCRichOpPhotPacker, MCRichSegmentPacker, MCRichTrackPacker
SimMonitor                 INFO Member list: GiGaGetEventAlg/GiGaGetMainEvent, MCTruthMonitor/MainMCTruthMonitor, GiGaGetHitsAlg, GaudiSequencer/DetectorsMonitor, GaudiSequencer/DataUnpackTest
DetectorsMonitor           INFO Member list: VPGaussMoni, MCHitMonitor/UTHitMonitor, MCHitMonitor/FTHitMonitor, MCCaloMonitor/EcalMonitor, MCCaloMonitor/HcalMonitor, MuonHitChecker
UTHitMonitor.MCPartic...   INFO MCParticle Momentum cut     : 0 GeV/c < P < 1.79769e+305 GeV/c
UTHitMonitor.MCPartic...   INFO            Beta * gamma cut : 0 < beta*gamma
UTHitMonitor.MCPartic...   INFO            Eta cut          : -1.79769e+308 < P < 1.79769e+308
FTHitMonitor.MCPartic...   INFO MCParticle Momentum cut     : 0 GeV/c < P < 1.79769e+305 GeV/c
FTHitMonitor.MCPartic...   INFO            Beta * gamma cut : 0 < beta*gamma
FTHitMonitor.MCPartic...   INFO            Eta cut          : -1.79769e+308 < P < 1.79769e+308
DataUnpackTest             INFO Member list: UnpackMCVertex, UnpackMCParticle, CompareMCVertex, CompareMCParticle, MCVPHitUnpacker/UnpackVPHits, MCVPHitChecker/CheckVPHits, MCUTHitUnpacker/UnpackUTHits, MCUTHitChecker/CheckUTHits, MCFTHitUnpacker/UnpackFTHits, MCFTHitChecker/CheckFTHits, MCRichHitUnpacker/UnpackRichHits, MCRichOpticalPhotonUnpacker/UnpackRichOpPhot, MCRichSegmentUnpacker/UnpackRichSegments, MCRichTrackUnpacker/UnpackRichTracks, MCRichHitChecker/CheckRichHits, MCRichOpticalPhotonChecker/CheckRichOpPhot, MCRichSegmentChecker/CheckRichSegments, MCRichTrackChecker/CheckRichTracks, MCEcalHitUnpacker/UnpackEcalHits, MCEcalHitChecker/CheckEcalHits, MCHcalHitUnpacker/UnpackHcalHits, MCHcalHitChecker/CheckHcalHits, MCMuonHitUnpacker/UnpackMuonHits, MCMuonHitChecker/CheckMuonHits
EventLoopMgr            WARNING Unable to locate service "EventSelector"
EventLoopMgr            WARNING No events will be processed from external input.
ApplicationMgr             INFO Application Manager Initialized successfully
ApplicationMgr             INFO Application Manager Started successfully
GaussGen                   INFO Evt 1,  Run 1,  Nr. in job = 1 with seeds [1, 1, 644571761, 0]
 PYTHIA Warning in SimpleSpaceShower::pT2nextQCD: weight above unity
MainEventGaussSim          INFO Evt 1,  Run 1,  Nr. in job = 1 with seeds [1, 1, 1711122878, 0]
GiGa.GiGaMgr               INFO GiGaRunManager::  Geometry will be extracted from GaussGeo
 FTFP_BERT : new threshold between BERT and FTFP is over the interval
 for pions :   3 to 6 GeV
 for kaons :   3 to 6 GeV
 for proton :  3 to 6 GeV
 for neutron : 3 to 6 GeV
GiGa.ModularPL.GiGaPh...   INFO RICH Optical Process activation status 1
GiGa.ModularPL.GiGaPh...   INFO  Activation for verbose Output in Rich Optical Proc = 0
RichPmtProperties          INFO  Now getting the QE from /dd/Materials/RichMaterialTabProperties/NominalPmtQuantumEff
 Pmt module supress Flags set3 set4 set5 set6 0   0  0   0
 Pmt supress Flags set0 set1 set2: 0   0   0
RichPmtProperties          INFO Classic RICH1 Total Number of pmts used   MaxNumPmt  = 2112   2112
RichPmtProperties          INFO Classic RICH2: Total Number of pmts Used MaxNumPmt = 2304   2304
RichPmtProperties          INFO Pmt HighVoltage value = 0.02
GiGa.ModularPL.GiGaPh...   INFO Current PMT QE source 0
GiGa.ModularPL.GiGaPh...   INFO Overall PMT QE scaling, R1, R2 1, 1
 RichG4Cerenkov Rich2 backgrActivateFlag  Rich2 backgrprob  0  0
G4Transportation:  Current values for thresholds related to  the killing of looping tracks:
    Warning Energy   = 100 MeV   ( below this tracks are killed without warning )
    Important Energy = 250  ( above this tracks are given multiple chances )
    Extra Trials     = 10 'important' tracks, i.e. those above 'important' energy
GiGa.ModularPL.GiGaPh...   INFO  RICHPmtPhysProcess Activation status  1
GiGa.ModularPL             INFO  The production cut for gamma is set to 	5 mm
GiGa.ModularPL             INFO  The production cut for electron is set to 	5 mm
GiGa.ModularPL             INFO  The production cut for positron is set to 	5 mm
====================================================================
                  HADRONIC PROCESSES SUMMARY (verbose level 1)
                           Hadronic Processes for neutron
  Process: hadElastic
        Model:             hElasticCHIPS: 0 eV  ---> 100 TeV
     Cr_sctns:        G4NeutronElasticXS: 0 eV  ---> 100 TeV
  Process: neutronInelastic
        Model:                      FTFP: 3 GeV ---> 100 TeV
        Model:            BertiniCascade: 0 eV  ---> 6 GeV
     Cr_sctns:      G4NeutronInelasticXS: 0 eV  ---> 100 TeV
  Process: nCapture
        Model:               nRadCapture: 0 eV  ---> 100 TeV
     Cr_sctns:        G4NeutronCaptureXS: 0 eV  ---> 100 TeV
  Process: nKiller
                           Hadronic Processes for GenericIon
  Process: ionInelastic
        Model:  Binary Light Ion Cascade: 0 eV /n ---> 6 GeV/n
        Model:                      FTFP: 3 GeV/n ---> 100 TeV/n
     Cr_sctns:  Glauber-Gribov Nucl-nucl: 0 eV  ---> 25.6 PeV
                           Hadronic Processes for He3
  Process: He3Inelastic
        Model:  Binary Light Ion Cascade: 0 eV /n ---> 6 GeV/n
        Model:                      FTFP: 3 GeV/n ---> 100 TeV/n
     Cr_sctns:  Glauber-Gribov Nucl-nucl: 0 eV  ---> 25.6 PeV
  Process: hadElastic
        Model:              hElasticLHEP: 0 eV /n ---> 100 TeV/n
     Cr_sctns:  Glauber-Gribov Nucl-nucl: 0 eV  ---> 25.6 PeV
                           Hadronic Processes for alpha
  Process: alphaInelastic
        Model:  Binary Light Ion Cascade: 0 eV /n ---> 6 GeV/n
        Model:                      FTFP: 3 GeV/n ---> 100 TeV/n
     Cr_sctns:  Glauber-Gribov Nucl-nucl: 0 eV  ---> 25.6 PeV
  Process: hadElastic
        Model:              hElasticLHEP: 0 eV /n ---> 100 TeV/n
     Cr_sctns:  Glauber-Gribov Nucl-nucl: 0 eV  ---> 25.6 PeV
                           Hadronic Processes for anti_He3
  Process: hadElastic
        Model:              hElasticLHEP: 0 eV /n ---> 100.1 MeV/n
        Model:              AntiAElastic: 100 MeV/n ---> 100 TeV/n
     Cr_sctns:              AntiAGlauber: 0 eV  ---> 25.6 PeV
  Process: anti_He3Inelastic
        Model:                      FTFP: 0 eV /n ---> 100 TeV/n
     Cr_sctns:              AntiAGlauber: 0 eV  ---> 25.6 PeV
  Process: hFritiofCaptureAtRest
                           Hadronic Processes for anti_alpha
  Process: hadElastic
        Model:              hElasticLHEP: 0 eV /n ---> 100.1 MeV/n
        Model:              AntiAElastic: 100 MeV/n ---> 100 TeV/n
     Cr_sctns:              AntiAGlauber: 0 eV  ---> 25.6 PeV
  Process: anti_alphaInelastic
        Model:                      FTFP: 0 eV /n ---> 100 TeV/n
     Cr_sctns:              AntiAGlauber: 0 eV  ---> 25.6 PeV
  Process: hFritiofCaptureAtRest
                           Hadronic Processes for anti_deuteron
  Process: hadElastic
        Model:              hElasticLHEP: 0 eV /n ---> 100.1 MeV/n
        Model:              AntiAElastic: 100 MeV/n ---> 100 TeV/n
     Cr_sctns:              AntiAGlauber: 0 eV  ---> 25.6 PeV
  Process: anti_deuteronInelastic
        Model:                      FTFP: 0 eV /n ---> 100 TeV/n
     Cr_sctns:              AntiAGlauber: 0 eV  ---> 25.6 PeV
  Process: hFritiofCaptureAtRest
                           Hadronic Processes for anti_neutron
  Process: hadElastic
        Model:              hElasticLHEP: 0 eV  ---> 100.1 MeV
        Model:              AntiAElastic: 100 MeV ---> 100 TeV
     Cr_sctns:              AntiAGlauber: 0 eV  ---> 25.6 PeV
  Process: anti_neutronInelastic
        Model:                      FTFP: 0 eV  ---> 100 TeV
     Cr_sctns:              AntiAGlauber: 0 eV  ---> 25.6 PeV
  Process: hFritiofCaptureAtRest
                           Hadronic Processes for anti_proton
  Process: hadElastic
        Model:              hElasticLHEP: 0 eV  ---> 100.1 MeV
        Model:              AntiAElastic: 100 MeV ---> 100 TeV
     Cr_sctns:              AntiAGlauber: 0 eV  ---> 25.6 PeV
  Process: anti_protonInelastic
        Model:                      FTFP: 0 eV  ---> 100 TeV
     Cr_sctns:              AntiAGlauber: 0 eV  ---> 25.6 PeV
  Process: hFritiofCaptureAtRest
                           Hadronic Processes for anti_triton
  Process: hadElastic
        Model:              hElasticLHEP: 0 eV /n ---> 100.1 MeV/n
        Model:              AntiAElastic: 100 MeV/n ---> 100 TeV/n
     Cr_sctns:              AntiAGlauber: 0 eV  ---> 25.6 PeV
  Process: anti_tritonInelastic
        Model:                      FTFP: 0 eV /n ---> 100 TeV/n
     Cr_sctns:              AntiAGlauber: 0 eV  ---> 25.6 PeV
  Process: hFritiofCaptureAtRest
                           Hadronic Processes for deuteron
  Process: dInelastic
        Model:  Binary Light Ion Cascade: 0 eV /n ---> 6 GeV/n
        Model:                      FTFP: 3 GeV/n ---> 100 TeV/n
     Cr_sctns:  Glauber-Gribov Nucl-nucl: 0 eV  ---> 25.6 PeV
  Process: hadElastic
        Model:              hElasticLHEP: 0 eV /n ---> 100 TeV/n
     Cr_sctns:  Glauber-Gribov Nucl-nucl: 0 eV  ---> 25.6 PeV
                           Hadronic Processes for e+
  Process: electronNuclear
        Model:   G4ElectroVDNuclearModel: 0 eV  ---> 1 PeV
     Cr_sctns:          ElectroNuclearXS: 0 eV  ---> 100 TeV
                           Hadronic Processes for e-
  Process: electronNuclear
        Model:   G4ElectroVDNuclearModel: 0 eV  ---> 1 PeV
     Cr_sctns:          ElectroNuclearXS: 0 eV  ---> 100 TeV
                           Hadronic Processes for gamma
  Process: photonNuclear
        Model:            BertiniCascade: 0 eV  ---> 6 GeV
        Model:           TheoFSGenerator: 3 GeV ---> 100 TeV
     Cr_sctns:            PhotoNuclearXS: 0 eV  ---> 100 TeV
                           Hadronic Processes for kaon+
  Process: hadElastic
        Model:              hElasticLHEP: 0 eV  ---> 100 TeV
     Cr_sctns:            Glauber-Gribov: 0 eV  ---> 100 TeV
  Process: kaon+Inelastic
        Model:                      FTFP: 3 GeV ---> 100 TeV
        Model:            BertiniCascade: 0 eV  ---> 6 GeV
     Cr_sctns:            Glauber-Gribov: 0 eV  ---> 100 TeV
                           Hadronic Processes for kaon-
  Process: hadElastic
        Model:              hElasticLHEP: 0 eV  ---> 100 TeV
     Cr_sctns:            Glauber-Gribov: 0 eV  ---> 100 TeV
  Process: kaon-Inelastic
        Model:                      FTFP: 3 GeV ---> 100 TeV
        Model:            BertiniCascade: 0 eV  ---> 6 GeV
     Cr_sctns:            Glauber-Gribov: 0 eV  ---> 100 TeV
  Process: hBertiniCaptureAtRest
                           Hadronic Processes for lambda
  Process: hadElastic
        Model:              hElasticLHEP: 0 eV  ---> 100 TeV
     Cr_sctns:            Glauber-Gribov: 0 eV  ---> 100 TeV
  Process: lambdaInelastic
        Model:            BertiniCascade: 0 eV  ---> 6 GeV
        Model:                      FTFP: 3 GeV ---> 100 TeV
     Cr_sctns:            Glauber-Gribov: 0 eV  ---> 100 TeV
                           Hadronic Processes for mu+
  Process: muonNuclear
        Model:      G4MuonVDNuclearModel: 0 eV  ---> 1 PeV
     Cr_sctns:     KokoulinMuonNuclearXS: 0 eV  ---> 100 TeV
                           Hadronic Processes for mu-
  Process: muonNuclear
        Model:      G4MuonVDNuclearModel: 0 eV  ---> 1 PeV
     Cr_sctns:     KokoulinMuonNuclearXS: 0 eV  ---> 100 TeV
  Process: muMinusCaptureAtRest
                           Hadronic Processes for pi+
  Process: hadElastic
        Model:           hElasticGlauber: 0 eV  ---> 100 TeV
     Cr_sctns:  BarashenkovGlauberGribov: 0 eV  ---> 100 TeV
  Process: pi+Inelastic
        Model:                      FTFP: 3 GeV ---> 100 TeV
        Model:            BertiniCascade: 0 eV  ---> 6 GeV
     Cr_sctns:  BarashenkovGlauberGribov: 0 eV  ---> 100 TeV
                           Hadronic Processes for pi-
  Process: hadElastic
        Model:           hElasticGlauber: 0 eV  ---> 100 TeV
     Cr_sctns:  BarashenkovGlauberGribov: 0 eV  ---> 100 TeV
  Process: pi-Inelastic
        Model:                      FTFP: 3 GeV ---> 100 TeV
        Model:            BertiniCascade: 0 eV  ---> 6 GeV
     Cr_sctns:  BarashenkovGlauberGribov: 0 eV  ---> 100 TeV
  Process: hBertiniCaptureAtRest
                           Hadronic Processes for proton
  Process: hadElastic
        Model:             hElasticCHIPS: 0 eV  ---> 100 TeV
     Cr_sctns:  BarashenkovGlauberGribov: 0 eV  ---> 100 TeV
  Process: protonInelastic
        Model:                      FTFP: 3 GeV ---> 100 TeV
        Model:            BertiniCascade: 0 eV  ---> 6 GeV
     Cr_sctns:  BarashenkovGlauberGribov: 0 eV  ---> 100 TeV
                           Hadronic Processes for triton
  Process: tInelastic
        Model:  Binary Light Ion Cascade: 0 eV /n ---> 6 GeV/n
        Model:                      FTFP: 3 GeV/n ---> 100 TeV/n
     Cr_sctns:  Glauber-Gribov Nucl-nucl: 0 eV  ---> 25.6 PeV
  Process: hadElastic
        Model:              hElasticLHEP: 0 eV /n ---> 100 TeV/n
     Cr_sctns:  Glauber-Gribov Nucl-nucl: 0 eV  ---> 25.6 PeV
================================================================
=======================================================================
======       Pre-compound/De-excitation Physics Parameters     ========
=======================================================================
Type of pre-compound inverse x-section              3
Pre-compound model active                           1
Pre-compound excitation low energy (MeV)            0.1
Pre-compound excitation high energy (MeV)           30
Type of de-excitation inverse x-section             3
Type of de-excitation factory                       Evaporation+GEM
Number of de-excitation channels                    68
Min excitation energy (keV)                         0.01
Min energy per nucleon for multifragmentation (MeV) 2e+05
Limit excitation energy for Fermi BreakUp (MeV)     20
Level density (1/MeV)                               0.075
Use simple level density model                      1
Use discrete excitation energy of the residual      0
Time limit for long lived isomeres (ns)             1000
Internal e- conversion flag                         1
Store e- internal conversion data                   0
Electron internal conversion ID                     2
Correlated gamma emission flag                      0
Max 2J for sampling of angular correlations         10
Upload data before 1st event for                Z < 9
=======================================================================
RichG4HistoSet2            INFO Now Booking Rich Ckv G4 Histo Set2
RichG4HistoSet2            INFO  End booking Rich G4 Histo set2
GiGaGetMainEvent           INFO Number of extracted MCParticles 'MC/Particles' 	5709
GiGaGetMainEvent           INFO Number of extracted MCVertices  'MC/Vertices'  	6026
ApplicationMgr             INFO Application Manager Stopped successfully
GaussGen                SUCCESS ==================================================================
GaussGen                SUCCESS 1 events processed
GaussGen                SUCCESS ==================================================================
Generation              SUCCESS READ FSR: { Event type: 10000000  Hard Generator: Pythia8  Generation method: Generation.Inclusive  DecFiles version: v32  njobs:1
 generator counters: AllEvt  key: 0  value: 53 / ZeroInt  key: 1  value: 2 / EvtGenerated  key: 2  value: 51 / IntGenerated  key: 3  value: 199 / EvtAccepted  key: 4  value: 1 / IntAccepted  key: 5  value: 7 / OnebGen  key: 10  value: 1 / ThreebGen  key: 11  value: 0 / PromptBGen  key: 12  value: 0 / OnecGen  key: 13  value: 26 / ThreecGen  key: 14  value: 4 / PromptCGen  key: 15  value: 0 / bAndcGen  key: 16  value: 1 / OnebAcc  key: 17  value: 1 / ThreebAcc  key: 18  value: 0 / PromptBAcc  key: 19  value: 0 / OnecAcc  key: 20  value: 1 / ThreecAcc  key: 21  value: 1 / PromptCAcc  key: 22  value: 0 / bAndcAcc  key: 23  value: 1 / BeforeLevelCut  key: 26  value: 1 / AfterLevelCut  key: 27  value: 1 / B0Gen  key: 30  value: 1 / BminusGen  key: 33  value: 1 / B0Acc  key: 41  value: 1 / BminusAcc  key: 44  value: 1 / D0Gen  key: 55  value: 2 / DplusGen  key: 57  value: 1 / DminusGen  key: 58  value: 3 / D0Acc  key: 64  value: 2 / DplusAcc  key: 66  value: 1 / DminusAcc  key: 67  value: 3 / BstarGen  key: 76  value: 2 / BstarAcc  key: 79  value: 2 / DGen  key: 85  value: 2 / DstarGen  key: 86  value: 3 / D2starGen  key: 87  value: 1 / DAcc  key: 88  value: 2 / DstarAcc  key: 89  value: 3 / D2starAcc  key: 90  value: 1 / AllsubProcess  key: 100  value: 199 / non-diffractive  key: 201  value: 128 / A B -> A B elastic  key: 202  value: 38 / A B -> X B single diffractive  key: 203  value: 10 / A B -> A X single diffractive  key: 204  value: 6 / A B -> X X double diffractive  key: 205  value: 17 /
cross-sections: Total cross-secti  key: 0  value: 101.512 / non-diffracti  key: 101  value: 57.1656 / A B -> A B elast  key: 102  value: 22.5806 / A B -> X B single diffracti  key: 103  value: 6.44236 / A B -> A X single diffracti  key: 104  value: 6.44236 / A B -> X X double diffracti  key: 105  value: 8.88086 /  }
GenMonitorAlg              INFO
======================== Generators Statistics ====================
=                                                                 =
= Number of particles generated: 4025
= Number of events: 1
= Mean multiplicity: 4025
=                                                                 =
= Number of pseudo stable particles generated: 1921
= Number of events: 1
= Mean pseudo stable multiplicity: 1921
=                                                                 =
= Number of charged stable particles generated: 590
= Number of events: 1
= Mean charged stable multiplicity: 590
=                                                                 =
= Number of charged stable particles in LHCb eta 146
= Number of events: 1
= Mean charged stable multiplicity in LHCb eta: 146
=                                                                 =
===================================================================
MainEventGaussSim       SUCCESS ==================================================================
MainEventGaussSim       SUCCESS 1 events processed
MainEventGaussSim       SUCCESS ==================================================================
GetRichHits                INFO Av. # Invalid RICH flags              =    0.00 +- 0.00
GetRichHits                INFO Av. # MCRichHits              : Rich1 = 3873.00 +-62.23 (100.00 +-0.00%) Rich2 = 2374.00 +-48.72 (100.00 +-0.00%)
GetRichHits                INFO Av. # Invalid radiator hits   : Rich1 =   10.00 +- 3.16 (  0.26 +-0.08%) Rich2 =    9.00 +- 3.00 (  0.38 +-0.13%)
GetRichHits                INFO Av. # Signal Hits             : Rich1 = 3280.00 +-57.27 ( 84.69 +-0.58%) Rich2 = 1621.00 +-40.26 ( 68.28 +-0.96%)
GetRichHits                INFO Av. # Gas Quartz CK hits      : Rich1 =  340.00 +-18.44 (  8.78 +-0.45%) Rich2 =  325.00 +-18.03 ( 13.69 +-0.71%)
GetRichHits                INFO Av. # HPD Quartz CK hits      : Rich1 =    0.00 +- 0.00 (  0.00 +-0.00%) Rich2 =    0.00 +- 0.00 (  0.00 +-0.00%)
GetRichHits                INFO Av. # Nitrogen CK hits        : Rich1 =   11.00 +- 3.32 (  0.28 +-0.09%) Rich2 =    3.00 +- 1.73 (  0.13 +-0.07%)
GetRichHits                INFO Av. # Si back-scattering      : Rich1 =    0.00 +- 0.00 (  0.00 +-0.00%) Rich2 =    0.00 +- 0.00 (  0.00 +-0.00%)
GetRichHits                INFO Av. # Charged Track hits      : Rich1 =   10.00 +- 3.16 (  0.26 +-0.08%) Rich2 =    9.00 +- 3.00 (  0.38 +-0.13%)
GetRichHits                INFO Av. # Scintillation hits      : Rich1 =    0.00 +- 0.00 (  0.00 +-0.00%) Rich2 =  263.00 +-16.22 ( 11.08 +-0.64%)
GetRichHits                INFO Av. # All HPD reflection hits : Rich1 =    0.00 +- 0.00 (  0.00 +-0.00%) Rich2 =    0.00 +- 0.00 (  0.00 +-0.00%)
GetRichHits                INFO Av. # Signal CK MCRichHits     C4F10 = 3280.00 +-57.27 ( 84.69 +-0.58%) CF4 = 1621.00 +-40.26 ( 68.28 +-0.96%)
GetRichHits                INFO Av. # MCParticle-less hits     C4F10 =    0.00 +- 0.00 (  0.00 +-0.00%) CF4 =    0.00 +- 0.00 (  0.00 +-0.00%)
GetRichPhotons             INFO Av. # MCRichOpticalPhotons : Rich1Gas =  3280.00 +- 57.27 / event
GetRichPhotons             INFO Av. # MCRichOpticalPhotons : Rich2Gas =  1884.00 +- 43.41 / event
GetRichPhotons             INFO Av. # MCRichOpticalPhotons : GasQuartzWin =   665.00 +- 25.79 / event
GetRichPhotons             INFO Av. # MCRichOpticalPhotons : Nitrogen =    14.00 +-  3.74 / event
GetRichPhotons             INFO Av. # MCRichOpticalPhotons : PMTQuartzWin =   385.00 +- 19.62 / event
GetRichSegments            INFO Av. # MCRichSegments       : Rich1Gas =    98.00 +-  9.90 / event
GetRichSegments            INFO Av. # MCRichSegments       : Rich2Gas =   186.00 +- 13.64 / event
GetRichSegments            INFO Av. # MCRichSegments       : GasQuartzWin =    44.00 +-  6.63 / event
GetRichSegments            INFO Av. # MCRichSegments       : Nitrogen =     5.00 +-  2.24 / event
GetRichSegments            INFO Av. # MCRichSegments       : PMTQuartzWin =    17.00 +-  4.12 / event
GetRichTracks              INFO Av. # MCRichTracks         : Overall =     0.00 +-  0.00
VPGaussMoni                INFO ------------------------------------------------------
VPGaussMoni                INFO                 - VPGaussMoni table -
VPGaussMoni                INFO ------------------------------------------------------
VPGaussMoni                INFO  Number of MCHits/Event: 447+/-0
VPGaussMoni                INFO ------------------------------------------------------
UTHitMonitor               INFO *** Summary ***
UTHitMonitor               INFO #hits per event: 1097
UTHitMonitor               INFO Mean beta * gamma: 1076.52
UTHitMonitor               INFO Most Probable deposited charge: 0.0862763
UTHitMonitor               INFO Half Sample width 0.0376827
FTHitMonitor               INFO *** Summary ***
FTHitMonitor               INFO #hits per event: 3211
FTHitMonitor               INFO Mean beta * gamma: 1578.31
FTHitMonitor               INFO Most Probable deposited charge: 0.236808
FTHitMonitor               INFO Half Sample width 0.0815362
MuonHitChecker             INFO -----------------------------------------------------------------
MuonHitChecker             INFO        Muon Monitoring Table
MuonHitChecker             INFO -----------------------------------------------------------------
MuonHitChecker             INFO  M1        M2        M3        M4        M5
MuonHitChecker             INFO 34.000  0.000  4.000  0.000  0.000   R1
MuonHitChecker             INFO 39.000  6.000  4.000  0.000  0.000   R2
MuonHitChecker             INFO 23.000  0.000  0.000  0.000  0.000   R3
MuonHitChecker             INFO 56.000  0.000  0.000  0.000  0.000   R4
MuonHitChecker             INFO -----------------------------------------------------------------
MuonHitChecker             INFO -------    Integrated over regions    ---------------------------
MuonHitChecker             INFO -----------------------------------------------------------------
MuonHitChecker             INFO 152.000  6.000  8.000  0.000  0.000   allR
MuonHitChecker             INFO  number of hits generated outside gaps volume 0
RootHistSvc             WARNING no ROOT output file name, Histograms cannot be persistified
EventLoopMgr               INFO Histograms converted successfully according to request.
ToolSvc                    INFO Removing all tools created by ToolSvc
 *-------  PYTHIA Event and Cross Section Statistics  -------------------------------------------------------------*
 *-------  End PYTHIA Event and Cross Section Statistics ----------------------------------------------------------*
 *-------  PYTHIA Error and Warning Messages Statistics  ----------------------------------------------------------*
 *-------  End PYTHIA Error and Warning Messages Statistics  ------------------------------------------------------*
GiGa.TrackSeq.PostTrack SUCCESS Exceptions/Errors/Warnings/Infos Statistics : 0/0/1/0
GiGa.TrackSeq.PostTrack SUCCESS  #WARNINGS   = 7488     Message = 'RichHpd/Pmt/Mcp PhotoelectricProcess  RichHpd/Pmt/Mcp SiEnergyLossProcess particles not kept'
GiGa.GiGaMgr               INFO GiGaRunManager:: GiGaRunManager Finalization
*****Chrono*****           INFO  The Final CPU consumption ( Chrono ) Table (ordered)
******Stat******           INFO  The Final stat Table (ordered)
******Stat******           INFO  |    Counter     |     #     |    sum     | mean/eff^* | rms/err^*  |     min     |     max     |
******Stat******           INFO  | "#Muon MCHits" |         1 |        166 |     166.00 |     0.0000 |      166.00 |      166.00 |
******Stat******           INFO  | "#MCRichTracks"|         1 |        288 |     288.00 |     0.0000 |      288.00 |      288.00 |
******Stat******           INFO  | "#MCRichSegment|         1 |        350 |     350.00 |     0.0000 |      350.00 |      350.00 |
******Stat******           INFO  | "#Velo MCHits" |         1 |        447 |     447.00 |     0.0000 |      447.00 |      447.00 |
******Stat******           INFO  | "#Prs MCHits"  |         1 |       1233 |     1233.0 |     0.0000 |      1233.0 |      1233.0 |
******Stat******           INFO  | "#Rich2 MCHits"|         1 |       2374 |     2374.0 |     0.0000 |      2374.0 |      2374.0 |
******Stat******           INFO  | "#Rich1 MCHits"|         1 |       3873 |     3873.0 |     0.0000 |      3873.0 |      3873.0 |
******Stat******           INFO  | "#MCParticles" |         1 |       5709 |     5709.0 |     0.0000 |      5709.0 |      5709.0 |
******Stat******           INFO  | "#MCVertices"  |         1 |       6026 |     6026.0 |     0.0000 |      6026.0 |      6026.0 |
******Stat******           INFO  | "#MCRichOpPhoto|         1 |       6228 |     6228.0 |     0.0000 |      6228.0 |      6228.0 |
******Stat******           INFO  | "#Rich MCHits" |         1 |       6247 |     6247.0 |     0.0000 |      6247.0 |      6247.0 |
******Stat******           INFO  | "#Spd MCHits"  |         1 |       8892 |     8892.0 |     0.0000 |      8892.0 |      8892.0 |
ChronoStatSvc.finalize()   INFO  Service finalized successfully
ApplicationMgr             INFO Application Manager Finalized successfully
ApplicationMgr             INFO Application Manager Terminated successfully
Thanks for using LHAPDF 6.2.3. Please make sure to cite the paper:
  Eur.Phys.J. C75 (2015) 3, 132  (http://arxiv.org/abs/1412.7420)
CheckEcalHits              INFO Number of counters : 6
 |    Counter                                      |     #     |    sum     | mean/eff^* | rms/err^*  |     min     |     max     |
 | "Diff.    - Energy"                             |      8892 |-0.003388515 |-3.8107e-07 | 2.8752e-05 | -4.9998e-05 |  4.9987e-05 |
 | "Diff.    - TOF"                                |      8892 |          0 |      0.0000 |      0.0000 |       0.0000 |       0.0000 |
 | "Original - Energy"                             |      8892 |   165168.4 |     18.575 |     107.82 |  5.6400e-05 |      4467.6 |
 | "Original - TOF"                                |      8892 |       1267 |    0.14249 |    0.38184 |       0.0000 |      9.0000 |
 | "Unpacked - Energy"                             |      8892 |   165168.4 |     18.575 |     107.82 |  0.00010000 |      4467.6 |
 | "Unpacked - TOF"                                |      8892 |       1267 |    0.14249 |    0.38184 |       0.0000 |      9.0000 |
CheckFTHits                INFO Number of counters : 27
 |    Counter                                      |     #     |    sum     | mean/eff^* | rms/err^*  |     min     |     max     |
 | "Diff.    - Displacement x"                     |      3211 |-1.375684e-05 |-4.2843e-09 | 2.8888e-07 | -4.9992e-07 |  4.9985e-07 |
 | "Diff.    - Displacement y"                     |      3211 |1.250597e-05 | 3.8947e-09 | 2.9202e-07 | -4.9995e-07 |  4.9992e-07 |
 | "Diff.    - Displacement z"                     |      3211 |1.610996e-05 | 5.0171e-09 | 2.9111e-07 | -4.9978e-07 |  4.9988e-07 |
 | "Diff.    - Energy"                             |      3211 |6.984154e-06 | 2.1751e-09 | 5.8341e-07 | -9.9944e-07 |  9.9866e-07 |
 | "Diff.    - Entry Point x"                      |      3211 |0.001625985 | 5.0638e-07 | 2.8851e-05 | -4.9944e-05 |  4.9987e-05 |
 | "Diff.    - Entry Point y"                      |      3211 |-0.0006039264 |-1.8808e-07 | 2.8868e-05 | -4.9998e-05 |  4.9993e-05 |
 | "Diff.    - Entry Point z"                      |      3211 |0.0005002009 | 1.5578e-07 | 2.8654e-05 | -4.9942e-05 |  4.9992e-05 |
 | "Diff.    - Parent |P|"                         |      3211 | -0.1324524 |-4.1250e-05 |  0.0028600 |  -0.0049926 |   0.0049868 |
 | "Diff.    - TOF"                                |      3211 |7.276957e-05 | 2.2663e-08 | 2.9077e-06 | -4.9986e-06 |  4.9990e-06 |
 | "Original - Displacement x"                     |      3211 |   101.5419 |   0.031623 |     1.2032 |     -10.562 |      23.720 |
 | "Original - Displacement y"                     |      3211 |   9.989189 |  0.0031109 |    0.89544 |     -9.7375 |      20.580 |
 | "Original - Displacement z"                     |      3211 |   3181.935 |    0.99095 |    0.73363 |     -1.3345 |      1.3309 |
 | "Original - Energy"                             |      3211 |   1465.656 |    0.45645 |    0.80727 |  0.00048228 |      15.864 |
 | "Original - Entry Point x"                      |      3211 |  -131304.5 |    -40.892 |     1105.1 |     -3175.0 |      3206.5 |
 | "Original - Entry Point y"                      |      3211 |  -230113.8 |    -71.664 |     724.83 |     -2410.2 |      2419.9 |
 | "Original - Entry Point z"                      |      3211 |2.779729e+07 |     8656.9 |     564.40 |      7816.8 |      9411.7 |
 | "Original - Parent |P|"                         |      3211 |1.436632e+07 |     4474.1 |     6762.8 |      1.4266 |      51394.0 |
 | "Original - TOF"                                |      3211 |   102060.5 |     31.785 |     8.2193 |      25.880 |      131.79 |
 | "Unpacked - Displacement x"                     |      3211 |   101.5419 |   0.031623 |     1.2032 |     -10.562 |      23.720 |
 | "Unpacked - Displacement y"                     |      3211 |   9.989176 |  0.0031109 |    0.89544 |     -9.7375 |      20.580 |
 | "Unpacked - Displacement z"                     |      3211 |   3181.935 |    0.99095 |    0.73363 |     -1.3345 |      1.3309 |
 | "Unpacked - Energy"                             |      3211 |   1465.656 |    0.45645 |    0.80727 |  0.00048200 |      15.864 |
 | "Unpacked - Entry Point x"                      |      3211 |  -131304.5 |    -40.892 |     1105.1 |     -3175.0 |      3206.5 |
 | "Unpacked - Entry Point y"                      |      3211 |  -230113.8 |    -71.664 |     724.83 |     -2410.2 |      2419.9 |
 | "Unpacked - Entry Point z"                      |      3211 |2.779729e+07 |     8656.9 |     564.40 |      7816.8 |      9411.7 |
 | "Unpacked - Parent |P|"                         |      3211 |1.436632e+07 |     4474.1 |     6762.8 |      1.4300 |      51394.0 |
 | "Unpacked - TOF"                                |      3211 |   102060.5 |     31.785 |     8.2193 |      25.880 |      131.79 |
CheckHcalHits              INFO Number of counters : 6
 |    Counter                                      |     #     |    sum     | mean/eff^* | rms/err^*  |     min     |     max     |
 | "Diff.    - Energy"                             |      1233 |0.0003583221 | 2.9061e-07 | 2.8425e-05 | -4.9986e-05 |  4.9857e-05 |
 | "Diff.    - TOF"                                |      1233 |          0 |      0.0000 |      0.0000 |       0.0000 |       0.0000 |
 | "Original - Energy"                             |      1233 |   10786.27 |     8.7480 |     23.469 |  0.00048627 |      288.98 |
 | "Original - TOF"                                |      1233 |        200 |    0.16221 |    0.48627 |     -1.0000 |      3.0000 |
 | "Unpacked - Energy"                             |      1233 |   10786.27 |     8.7480 |     23.469 |  0.00050000 |      288.98 |
 | "Unpacked - TOF"                                |      1233 |        200 |    0.16221 |    0.48627 |     -1.0000 |      3.0000 |
CheckMuonHits              INFO Number of counters : 27
 |    Counter                                      |     #     |    sum     | mean/eff^* | rms/err^*  |     min     |     max     |
 | "Diff.    - Displacement x"                     |       166 |8.721182e-07 | 5.2537e-09 | 3.1691e-07 | -4.8724e-07 |  4.9922e-07 |
 | "Diff.    - Displacement y"                     |       166 |-1.278006e-06 |-7.6988e-09 | 3.0456e-07 | -4.8736e-07 |  4.9904e-07 |
 | "Diff.    - Displacement z"                     |       166 |2.049792e-06 | 1.2348e-08 | 2.8632e-07 | -4.8138e-07 |  4.9931e-07 |
 | "Diff.    - Energy"                             |       166 |4.119917e-07 | 2.4819e-09 | 5.4286e-07 | -9.5601e-07 |  9.9662e-07 |
 | "Diff.    - Entry Point x"                      |       166 |0.0005332382 | 3.2123e-06 | 2.7989e-05 | -4.9767e-05 |  4.9956e-05 |
 | "Diff.    - Entry Point y"                      |       166 |-0.0002745752 |-1.6541e-06 | 2.9919e-05 | -4.9884e-05 |  4.9999e-05 |
 | "Diff.    - Entry Point z"                      |       166 |-1.621007e-05 |-9.7651e-08 | 2.7514e-05 | -4.9363e-05 |  4.9934e-05 |
 | "Diff.    - Parent |P|"                         |       166 | 0.00192657 | 1.1606e-05 |  0.0028833 |  -0.0048769 |   0.0049867 |
 | "Diff.    - TOF"                                |       166 |-5.251246e-05 |-3.1634e-07 | 2.9656e-06 | -4.9376e-06 |  4.8378e-06 |
 | "Original - Displacement x"                     |       166 |   497.1422 |     2.9948 |     4.0971 |     -10.243 |      19.281 |
 | "Original - Displacement y"                     |       166 |   152.1747 |    0.91672 |     4.1400 |     -23.407 |      24.349 |
 | "Original - Displacement z"                     |       166 |   638.4914 |     3.8463 |     3.1201 |     -5.0130 |      5.0877 |
 | "Original - Energy"                             |       166 |  0.5314804 |  0.0032017 |  0.0052574 |  0.00011805 |    0.053253 |
 | "Original - Entry Point x"                      |       166 |   150987.4 |     909.56 |     2172.2 |     -4807.1 |      4821.5 |
 | "Original - Entry Point y"                      |       166 |   29742.71 |     179.17 |     1007.9 |     -2946.1 |      3227.9 |
 | "Original - Entry Point z"                      |       166 |    2561661 |     15432.0 |     556.21 |      15090.0 |      17739.0 |
 | "Original - Parent |P|"                         |       166 |   71568.32 |     431.13 |     635.92 |      1.4438 |      2675.4 |
 | "Original - TOF"                                |       166 |   9009.755 |     54.276 |     3.7788 |      50.736 |      78.426 |
 | "Unpacked - Displacement x"                     |       166 |   497.1422 |     2.9948 |     4.0971 |     -10.243 |      19.281 |
 | "Unpacked - Displacement y"                     |       166 |   152.1747 |    0.91672 |     4.1400 |     -23.407 |      24.349 |
 | "Unpacked - Displacement z"                     |       166 |   638.4914 |     3.8463 |     3.1201 |     -5.0130 |      5.0877 |
 | "Unpacked - Energy"                             |       166 |    0.53148 |  0.0032017 |  0.0052574 |  0.00011800 |    0.053254 |
 | "Unpacked - Entry Point x"                      |       166 |   150987.4 |     909.56 |     2172.2 |     -4807.1 |      4821.5 |
 | "Unpacked - Entry Point y"                      |       166 |   29742.71 |     179.17 |     1007.9 |     -2946.1 |      3227.9 |
 | "Unpacked - Entry Point z"                      |       166 |    2561661 |     15432.0 |     556.21 |      15090.0 |      17739.0 |
 | "Unpacked - Parent |P|"                         |       166 |   71568.32 |     431.13 |     635.92 |      1.4400 |      2675.4 |
 | "Unpacked - TOF"                                |       166 |   9009.755 |     54.276 |     3.7788 |      50.736 |      78.426 |
CheckRichHits              INFO Number of counters : 15
 |    Counter                                      |     #     |    sum     | mean/eff^* | rms/err^*  |     min     |     max     |
 | "Diff.    - Energy"                             |      6247 |0.007083423 | 1.1339e-06 | 0.00012928 |  -0.0033288 |   0.0047719 |
 | "Diff.    - Entry Point x"                      |      6247 |0.001702011 | 2.7245e-07 | 2.9063e-05 | -4.9930e-05 |  5.0000e-05 |
 | "Diff.    - Entry Point y"                      |      6247 |0.0004728362 | 7.5690e-08 | 2.8901e-05 | -4.9979e-05 |  4.9980e-05 |
 | "Diff.    - Entry Point z"                      |      6247 |-0.001681394 |-2.6915e-07 | 2.8939e-05 | -4.9992e-05 |  4.9996e-05 |
 | "Diff.    - TOF"                                |      6247 |-0.0004644028 |-7.4340e-08 | 2.8752e-06 | -4.9983e-06 |  4.9964e-06 |
 | "Original - Energy"                             |      6247 |   5488.097 |    0.87852 |     24.316 |    0.020000 |      1000.1 |
 | "Original - Entry Point x"                      |      6247 |   177005.4 |     28.334 |     2413.0 |     -4062.5 |      4060.7 |
 | "Original - Entry Point y"                      |      6247 |   -2306700 |    -369.25 |     1022.3 |     -1580.3 |      1577.4 |
 | "Original - Entry Point z"                      |      6247 |3.222414e+07 |     5158.3 |     4379.0 |      1386.1 |      11054.0 |
 | "Original - TOF"                                |      6247 |   169470.5 |     27.128 |     19.905 |      6.8664 |      197.17 |
 | "Unpacked - Energy"                             |      6247 |    5488.09 |    0.87852 |     24.316 |    0.020000 |      1000.1 |
 | "Unpacked - Entry Point x"                      |      6247 |   177005.4 |     28.334 |     2413.0 |     -4062.5 |      4060.7 |
 | "Unpacked - Entry Point y"                      |      6247 |   -2306700 |    -369.25 |     1022.3 |     -1580.3 |      1577.4 |
 | "Unpacked - Entry Point z"                      |      6247 |3.222414e+07 |     5158.3 |     4379.0 |      1386.1 |      11054.0 |
 | "Unpacked - TOF"                                |      6247 |   169470.5 |     27.128 |     19.905 |      6.8664 |      197.17 |
CheckRichOpPhot            INFO Number of counters : 72
 |    Counter                                      |     #     |    sum     | mean/eff^* | rms/err^*  |     min     |     max     |
 | "Diff.    - Aero. Exit x"                       |      6228 |          0 |      0.0000 |      0.0000 |       0.0000 |       0.0000 |
 | "Diff.    - Aero. Exit y"                       |      6228 |          0 |      0.0000 |      0.0000 |       0.0000 |       0.0000 |
 | "Diff.    - Aero. Exit z"                       |      6228 |          0 |      0.0000 |      0.0000 |       0.0000 |       0.0000 |
 | "Diff.    - Cherenkov Phi"                      |      6228 |          0 |      0.0000 |      0.0000 |       0.0000 |       0.0000 |
 | "Diff.    - Cherenkov Theta"                    |      6228 |          0 |      0.0000 |      0.0000 |       0.0000 |       0.0000 |
 | "Diff.    - Emission Point x"                   |      6228 |-0.00143831 |-2.3094e-07 | 2.8799e-05 | -5.0000e-05 |  4.9978e-05 |
 | "Diff.    - Emission Point y"                   |      6228 |-9.325181e-05 |-1.4973e-08 | 2.9109e-05 | -4.9991e-05 |  4.9989e-05 |
 | "Diff.    - Emission Point z"                   |      6228 |0.002213034 | 3.5534e-07 | 2.8998e-05 | -4.9988e-05 |  4.9994e-05 |
 | "Diff.    - Energy"                             |      6228 |9.097221e-10 | 1.4607e-13 | 5.8175e-12 | -1.0004e-11 |  1.0004e-11 |
 | "Diff.    - HPD In. Point x"                    |      6228 |-0.0003846179 |-6.1756e-08 | 2.9010e-05 | -4.9959e-05 |  4.9983e-05 |
 | "Diff.    - HPD In. Point y"                    |      6228 |-0.0002769112 |-4.4462e-08 | 2.8884e-05 | -4.9972e-05 |  4.9967e-05 |
 | "Diff.    - HPD In. Point z"                    |      6228 |0.001830105 | 2.9385e-07 | 2.8623e-05 | -4.9971e-05 |  4.9983e-05 |
 | "Diff.    - HPD QW Point x"                     |      6228 |          0 |      0.0000 |      0.0000 |       0.0000 |       0.0000 |
 | "Diff.    - HPD QW Point y"                     |      6228 |          0 |      0.0000 |      0.0000 |       0.0000 |       0.0000 |
 | "Diff.    - HPD QW Point z"                     |      6228 |          0 |      0.0000 |      0.0000 |       0.0000 |       0.0000 |
 | "Diff.    - Parent Momentum x"                  |      6228 |          0 |      0.0000 |      0.0000 |       0.0000 |       0.0000 |
 | "Diff.    - Parent Momentum y"                  |      6228 |          0 |      0.0000 |      0.0000 |       0.0000 |       0.0000 |
 | "Diff.    - Parent Momentum z"                  |      6228 |          0 |      0.0000 |      0.0000 |       0.0000 |       0.0000 |
 | "Diff.    - Prim. Mirr. x"                      |      6228 |          0 |      0.0000 |      0.0000 |       0.0000 |       0.0000 |
 | "Diff.    - Prim. Mirr. y"                      |      6228 |          0 |      0.0000 |      0.0000 |       0.0000 |       0.0000 |
 | "Diff.    - Prim. Mirr. z"                      |      6228 |          0 |      0.0000 |      0.0000 |       0.0000 |       0.0000 |
 | "Diff.    - Sec. Mirr. x"                       |      6228 |          0 |      0.0000 |      0.0000 |       0.0000 |       0.0000 |
 | "Diff.    - Sec. Mirr. y"                       |      6228 |          0 |      0.0000 |      0.0000 |       0.0000 |       0.0000 |
 | "Diff.    - Sec. Mirr. z"                       |      6228 |          0 |      0.0000 |      0.0000 |       0.0000 |       0.0000 |
 | "Original - Aero. Exit x"                       |      6228 |          0 |      0.0000 |      0.0000 |       0.0000 |       0.0000 |
 | "Original - Aero. Exit y"                       |      6228 |          0 |      0.0000 |      0.0000 |       0.0000 |       0.0000 |
 | "Original - Aero. Exit z"                       |      6228 |          0 |      0.0000 |      0.0000 |       0.0000 |       0.0000 |
 | "Original - Cherenkov Phi"                      |      6228 |   19477.49 |     3.1274 |     1.8415 |  0.00062360 |      6.2810 |
 | "Original - Cherenkov Theta"                    |      6228 |   1419.712 |    0.22796 |    0.40736 |   0.0046785 |      2.9477 |
 | "Original - Emission Point x"                   |      6228 |  -1553.774 |   -0.24948 |     1315.4 |     -3929.6 |      4032.2 |
 | "Original - Emission Point y"                   |      6228 |  -475172.7 |    -76.296 |     444.40 |     -2202.5 |      2378.6 |
 | "Original - Emission Point z"                   |      6228 |3.057857e+07 |     4909.9 |     4374.3 |      860.65 |      11794.0 |
 | "Original - Energy"                             |      6228 | 0.02537036 | 4.0736e-06 | 9.4466e-07 |  1.9072e-06 |  6.2181e-06 |
 | "Original - HPD In. Point x"                    |      6228 |   172623.8 |     27.717 |     2406.7 |     -4053.8 |      4051.9 |
 | "Original - HPD In. Point y"                    |      6228 |   -2285980 |    -367.05 |     1016.3 |     -1571.8 |      1569.0 |
 | "Original - HPD In. Point z"                    |      6228 |3.207791e+07 |     5150.6 |     4378.5 |      1380.8 |      11049.0 |
 | "Original - HPD QW Point x"                     |      6228 |          0 |      0.0000 |      0.0000 |       0.0000 |       0.0000 |
 | "Original - HPD QW Point y"                     |      6228 |          0 |      0.0000 |      0.0000 |       0.0000 |       0.0000 |
 | "Original - HPD QW Point z"                     |      6228 |          0 |      0.0000 |      0.0000 |       0.0000 |       0.0000 |
 | "Original - Parent Momentum x"                  |      6228 |          0 |      0.0000 |      0.0000 |       0.0000 |       0.0000 |
 | "Original - Parent Momentum y"                  |      6228 |          0 |      0.0000 |      0.0000 |       0.0000 |       0.0000 |
 | "Original - Parent Momentum z"                  |      6228 |          0 |      0.0000 |      0.0000 |       0.0000 |       0.0000 |
 | "Original - Prim. Mirr. x"                      |      6228 |          0 |      0.0000 |      0.0000 |       0.0000 |       0.0000 |
 | "Original - Prim. Mirr. y"                      |      6228 |          0 |      0.0000 |      0.0000 |       0.0000 |       0.0000 |
 | "Original - Prim. Mirr. z"                      |      6228 |          0 |      0.0000 |      0.0000 |       0.0000 |       0.0000 |
 | "Original - Sec. Mirr. x"                       |      6228 |          0 |      0.0000 |      0.0000 |       0.0000 |       0.0000 |
 | "Original - Sec. Mirr. y"                       |      6228 |          0 |      0.0000 |      0.0000 |       0.0000 |       0.0000 |
 | "Original - Sec. Mirr. z"                       |      6228 |          0 |      0.0000 |      0.0000 |       0.0000 |       0.0000 |
 | "Unpacked - Aero. Exit x"                       |      6228 |          0 |      0.0000 |      0.0000 |       0.0000 |       0.0000 |
 | "Unpacked - Aero. Exit y"                       |      6228 |          0 |      0.0000 |      0.0000 |       0.0000 |       0.0000 |
 | "Unpacked - Aero. Exit z"                       |      6228 |          0 |      0.0000 |      0.0000 |       0.0000 |       0.0000 |
 | "Unpacked - Cherenkov Phi"                      |      6228 |   19477.49 |     3.1274 |     1.8415 |  0.00062360 |      6.2810 |
 | "Unpacked - Cherenkov Theta"                    |      6228 |   1419.712 |    0.22796 |    0.40736 |   0.0046785 |      2.9477 |
 | "Unpacked - Emission Point x"                   |      6228 |  -1553.772 |   -0.24948 |     1315.4 |     -3929.6 |      4032.2 |
 | "Unpacked - Emission Point y"                   |      6228 |  -475172.7 |    -76.296 |     444.40 |     -2202.5 |      2378.6 |
 | "Unpacked - Emission Point z"                   |      6228 |3.057857e+07 |     4909.9 |     4374.3 |      860.65 |      11794.0 |
 | "Unpacked - Energy"                             |      6228 | 0.02537036 | 4.0736e-06 | 9.4466e-07 |  1.9072e-06 |  6.2181e-06 |
 | "Unpacked - HPD In. Point x"                    |      6228 |   172623.8 |     27.717 |     2406.7 |     -4053.8 |      4051.9 |
 | "Unpacked - HPD In. Point y"                    |      6228 |   -2285980 |    -367.05 |     1016.3 |     -1571.8 |      1569.0 |
 | "Unpacked - HPD In. Point z"                    |      6228 |3.207791e+07 |     5150.6 |     4378.5 |      1380.8 |      11049.0 |
 | "Unpacked - HPD QW Point x"                     |      6228 |          0 |      0.0000 |      0.0000 |       0.0000 |       0.0000 |
 | "Unpacked - HPD QW Point y"                     |      6228 |          0 |      0.0000 |      0.0000 |       0.0000 |       0.0000 |
 | "Unpacked - HPD QW Point z"                     |      6228 |          0 |      0.0000 |      0.0000 |       0.0000 |       0.0000 |
 | "Unpacked - Parent Momentum x"                  |      6228 |          0 |      0.0000 |      0.0000 |       0.0000 |       0.0000 |
 | "Unpacked - Parent Momentum y"                  |      6228 |          0 |      0.0000 |      0.0000 |       0.0000 |       0.0000 |
 | "Unpacked - Parent Momentum z"                  |      6228 |          0 |      0.0000 |      0.0000 |       0.0000 |       0.0000 |
 | "Unpacked - Prim. Mirr. x"                      |      6228 |          0 |      0.0000 |      0.0000 |       0.0000 |       0.0000 |
 | "Unpacked - Prim. Mirr. y"                      |      6228 |          0 |      0.0000 |      0.0000 |       0.0000 |       0.0000 |
 | "Unpacked - Prim. Mirr. z"                      |      6228 |          0 |      0.0000 |      0.0000 |       0.0000 |       0.0000 |
 | "Unpacked - Sec. Mirr. x"                       |      6228 |          0 |      0.0000 |      0.0000 |       0.0000 |       0.0000 |
 | "Unpacked - Sec. Mirr. y"                       |      6228 |          0 |      0.0000 |      0.0000 |       0.0000 |       0.0000 |
 | "Unpacked - Sec. Mirr. z"                       |      6228 |          0 |      0.0000 |      0.0000 |       0.0000 |       0.0000 |
CheckRichSegments          INFO Number of counters : 18
 |    Counter                                      |     #     |    sum     | mean/eff^* | rms/err^*  |     min     |     max     |
 | "Diff.    - Traj. Momenta x"                    |       350 |          0 |      0.0000 |      0.0000 |       0.0000 |       0.0000 |
 | "Diff.    - Traj. Momenta y"                    |       350 |          0 |      0.0000 |      0.0000 |       0.0000 |       0.0000 |
 | "Diff.    - Traj. Momenta z"                    |       350 |          0 |      0.0000 |      0.0000 |       0.0000 |       0.0000 |
 | "Diff.    - Traj. Point x"                      |       350 |          0 |      0.0000 |      0.0000 |       0.0000 |       0.0000 |
 | "Diff.    - Traj. Point y"                      |       350 |          0 |      0.0000 |      0.0000 |       0.0000 |       0.0000 |
 | "Diff.    - Traj. Point z"                      |       350 |          0 |      0.0000 |      0.0000 |       0.0000 |       0.0000 |
 | "Original - Traj. Momenta x"                    |       350 |          0 |      0.0000 |      0.0000 |       0.0000 |       0.0000 |
 | "Original - Traj. Momenta y"                    |       350 |          0 |      0.0000 |      0.0000 |       0.0000 |       0.0000 |
 | "Original - Traj. Momenta z"                    |       350 |          0 |      0.0000 |      0.0000 |       0.0000 |       0.0000 |
 | "Original - Traj. Point x"                      |       350 |          0 |      0.0000 |      0.0000 |       0.0000 |       0.0000 |
 | "Original - Traj. Point y"                      |       350 |          0 |      0.0000 |      0.0000 |       0.0000 |       0.0000 |
 | "Original - Traj. Point z"                      |       350 |          0 |      0.0000 |      0.0000 |       0.0000 |       0.0000 |
 | "Unpacked - Traj. Momenta x"                    |       350 |          0 |      0.0000 |      0.0000 |       0.0000 |       0.0000 |
 | "Unpacked - Traj. Momenta y"                    |       350 |          0 |      0.0000 |      0.0000 |       0.0000 |       0.0000 |
 | "Unpacked - Traj. Momenta z"                    |       350 |          0 |      0.0000 |      0.0000 |       0.0000 |       0.0000 |
 | "Unpacked - Traj. Point x"                      |       350 |          0 |      0.0000 |      0.0000 |       0.0000 |       0.0000 |
 | "Unpacked - Traj. Point y"                      |       350 |          0 |      0.0000 |      0.0000 |       0.0000 |       0.0000 |
 | "Unpacked - Traj. Point z"                      |       350 |          0 |      0.0000 |      0.0000 |       0.0000 |       0.0000 |
CheckUTHits                INFO Number of counters : 27
 |    Counter                                      |     #     |    sum     | mean/eff^* | rms/err^*  |     min     |     max     |
 | "Diff.    - Displacement x"                     |      1097 |4.881524e-06 | 4.4499e-09 | 2.8650e-07 | -4.9989e-07 |  4.9977e-07 |
 | "Diff.    - Displacement y"                     |      1097 |-1.436757e-05 |-1.3097e-08 | 2.8871e-07 | -4.9884e-07 |  4.9877e-07 |
 | "Diff.    - Displacement z"                     |      1097 |-2.689845e-08 |-2.4520e-11 | 7.7052e-08 | -4.9242e-07 |  4.9242e-07 |
 | "Diff.    - Energy"                             |      1097 |3.711896e-05 | 3.3837e-08 | 5.6899e-07 | -9.9985e-07 |  9.9916e-07 |
 | "Diff.    - Entry Point x"                      |      1097 |0.0001598438 | 1.4571e-07 | 2.8733e-05 | -4.9939e-05 |  4.9961e-05 |
 | "Diff.    - Entry Point y"                      |      1097 |0.0003451778 | 3.1466e-07 | 2.8211e-05 | -4.9891e-05 |  4.9533e-05 |
 | "Diff.    - Entry Point z"                      |      1097 |-1.116279e-06 |-1.0176e-09 | 4.9622e-06 | -4.9394e-05 |  4.9815e-05 |
 | "Diff.    - Parent |P|"                         |      1097 |  -0.186252 |-0.00016978 |  0.0028665 |  -0.0049940 |   0.0049873 |
 | "Diff.    - TOF"                                |      1097 |3.983142e-05 | 3.6309e-08 | 2.8496e-06 | -4.9984e-06 |  4.9735e-06 |
 | "Original - Displacement x"                     |      1097 |   10.25727 |  0.0093503 |    0.21418 |     -1.8029 |      2.1516 |
 | "Original - Displacement y"                     |      1097 |  -6.044327 | -0.0055099 |    0.16092 |     -1.3350 |      1.6353 |
 | "Original - Displacement z"                     |      1097 |   209.2975 |    0.19079 |    0.20914 |    -0.31700 |     0.31700 |
 | "Original - Energy"                             |      1097 |   190.8117 |    0.17394 |    0.36043 |  0.00010996 |      4.0135 |
 | "Original - Entry Point x"                      |      1097 |   15266.04 |     13.916 |     303.04 |     -863.09 |      859.85 |
 | "Original - Entry Point y"                      |      1097 |     -41445 |    -37.780 |     256.16 |     -669.03 |      659.71 |
 | "Original - Entry Point z"                      |      1097 |    2732902 |     2491.3 |     144.08 |      2306.7 |      2663.3 |
 | "Original - Parent |P|"                         |      1097 |    4307619 |     3926.7 |     6680.2 |      1.4223 |      44412.0 |
 | "Original - TOF"                                |      1097 |   11491.46 |     10.475 |     4.7236 |      7.4737 |      36.786 |
 | "Unpacked - Displacement x"                     |      1097 |   10.25727 |  0.0093503 |    0.21418 |     -1.8029 |      2.1516 |
 | "Unpacked - Displacement y"                     |      1097 |  -6.044313 | -0.0055099 |    0.16092 |     -1.3350 |      1.6353 |
 | "Unpacked - Displacement z"                     |      1097 |   209.2975 |    0.19079 |    0.20914 |    -0.31700 |     0.31700 |
 | "Unpacked - Energy"                             |      1097 |   190.8116 |    0.17394 |    0.36043 |  0.00011000 |      4.0135 |
 | "Unpacked - Entry Point x"                      |      1097 |   15266.04 |     13.916 |     303.04 |     -863.09 |      859.85 |
 | "Unpacked - Entry Point y"                      |      1097 |     -41445 |    -37.780 |     256.16 |     -669.03 |      659.71 |
 | "Unpacked - Entry Point z"                      |      1097 |    2732902 |     2491.3 |     144.08 |      2306.7 |      2663.3 |
 | "Unpacked - Parent |P|"                         |      1097 |    4307619 |     3926.7 |     6680.2 |      1.4200 |      44412.0 |
 | "Unpacked - TOF"                                |      1097 |   11491.46 |     10.475 |     4.7236 |      7.4737 |      36.786 |
CheckVPHits                INFO Number of counters : 27
 |    Counter                                      |     #     |    sum     | mean/eff^* | rms/err^*  |     min     |     max     |
 | "Diff.    - Displacement x"                     |       447 |6.138088e-07 | 1.3732e-09 | 2.8257e-07 | -4.9191e-07 |  4.9952e-07 |
 | "Diff.    - Displacement y"                     |       447 |5.793644e-06 | 1.2961e-08 | 2.7882e-07 | -4.9823e-07 |  4.9883e-07 |
 | "Diff.    - Displacement z"                     |       447 |4.869126e-07 | 1.0893e-09 | 1.7485e-08 | -4.5464e-14 |  3.4002e-07 |
 | "Diff.    - Energy"                             |       447 |-4.718536e-06 |-1.0556e-08 | 5.6939e-07 | -9.8903e-07 |  9.8746e-07 |
 | "Diff.    - Entry Point x"                      |       447 |0.0007082447 | 1.5844e-06 | 2.8287e-05 | -4.9274e-05 |  4.9929e-05 |
 | "Diff.    - Entry Point y"                      |       447 |-0.00039927 |-8.9322e-07 | 2.8435e-05 | -4.9883e-05 |  4.9873e-05 |
 | "Diff.    - Entry Point z"                      |       447 |1.165998e-05 | 2.6085e-08 | 5.5088e-07 | -1.1369e-13 |  1.1660e-05 |
 | "Diff.    - Parent |P|"                         |       447 | 0.04992836 | 0.00011170 |  0.0028327 |  -0.0049705 |   0.0049900 |
 | "Diff.    - TOF"                                |       447 |-3.648667e-05 |-8.1626e-08 | 2.8985e-06 | -4.9322e-06 |  4.9555e-06 |
 | "Original - Displacement x"                     |       447 |  -6.967919 |  -0.015588 |    0.13598 |     -1.4996 |     0.26987 |
 | "Original - Displacement y"                     |       447 |  -3.237881 | -0.0072436 |   0.052607 |    -0.64465 |     0.16921 |
 | "Original - Displacement z"                     |       447 |   43.06783 |   0.096349 |    0.17481 |    -0.20000 |     0.20000 |
 | "Original - Energy"                             |       447 |   41.30129 |   0.092397 |    0.12852 |    0.037471 |      1.2271 |
 | "Original - Entry Point x"                      |       447 |  -650.2558 |    -1.4547 |     38.763 |     -78.511 |      72.356 |
 | "Original - Entry Point y"                      |       447 |   -682.233 |    -1.5262 |     21.341 |     -46.980 |      48.212 |
 | "Original - Entry Point z"                      |       447 |   98288.26 |     219.88 |     308.74 |     -288.04 |      750.54 |
 | "Original - Parent |P|"                         |       447 |    1579154 |     3532.8 |     4311.5 |      3.0545 |      27510.0 |
 | "Original - TOF"                                |       447 |   480.6262 |     1.0752 |    0.70631 |     0.13767 |      2.7321 |
 | "Unpacked - Displacement x"                     |       447 |   -6.96792 |  -0.015588 |    0.13598 |     -1.4996 |     0.26987 |
 | "Unpacked - Displacement y"                     |       447 |  -3.237887 | -0.0072436 |   0.052607 |    -0.64465 |     0.16921 |
 | "Unpacked - Displacement z"                     |       447 |   43.06783 |   0.096349 |    0.17481 |    -0.20000 |     0.20000 |
 | "Unpacked - Energy"                             |       447 |   41.30129 |   0.092397 |    0.12852 |    0.037470 |      1.2271 |
 | "Unpacked - Entry Point x"                      |       447 |  -650.2565 |    -1.4547 |     38.763 |     -78.511 |      72.356 |
 | "Unpacked - Entry Point y"                      |       447 |  -682.2326 |    -1.5262 |     21.341 |     -46.980 |      48.212 |
 | "Unpacked - Entry Point z"                      |       447 |   98288.26 |     219.88 |     308.74 |     -288.04 |      750.54 |
 | "Unpacked - Parent |P|"                         |       447 |    1579154 |     3532.8 |     4311.5 |      3.0500 |      27510.0 |
 | "Unpacked - TOF"                                |       447 |   480.6263 |     1.0752 |    0.70631 |     0.13767 |      2.7321 |
FTHitMonitor               INFO Number of counters : 3
 |    Counter                                      |     #     |    sum     | mean/eff^* | rms/err^*  |     min     |     max     |
 | "DeltaRay"                                      |       232 |
 | "betaGamma"                                     |      3211 |    5067955 |     1578.3 |
 | "numberHits"                                    |         1 |       3211 |     3211.0 |
GaussGen.GaussGenMemory    INFO Number of counters : 1
 |    Counter                                      |     #     |    sum     | mean/eff^* | rms/err^*  |     min     |     max     |
GaussGeo.Ecal              INFO Number of counters : 4
 |    Counter                                      |     #     |    sum     | mean/eff^* | rms/err^*  |     min     |     max     |
 | "#energy"                                       |         1 |   165.1684 |     165.17 |      0.0000 |      165.17 |      165.17 |
 | "#hits"                                         |         1 |       3233 |     3233.0 |      0.0000 |      3233.0 |      3233.0 |
 | "#subhits"                                      |         1 |       7744 |     7744.0 |      0.0000 |      7744.0 |      7744.0 |
 | "#tslots"                                       |         1 |       8892 |     8892.0 |      0.0000 |      8892.0 |      8892.0 |
GaussGeo.Hcal              INFO Number of counters : 4
 |    Counter                                      |     #     |    sum     | mean/eff^* | rms/err^*  |     min     |     max     |
 | "#energy"                                       |         1 |   10.78627 |     10.786 |      0.0000 |      10.786 |      10.786 |
 | "#hits"                                         |         1 |        506 |     506.00 |      0.0000 |      506.00 |      506.00 |
 | "#subhits"                                      |         1 |        930 |     930.00 |      0.0000 |      930.00 |      930.00 |
 | "#tslots"                                       |         1 |       1233 |     1233.0 |      0.0000 |      1233.0 |      1233.0 |
MCEcalHitPacker            INFO Number of counters : 1
 |    Counter                                      |     #     |    sum     | mean/eff^* | rms/err^*  |     min     |     max     |
 | "# PackedData"                                  |         1 |       8892 |     8892.0 |      0.0000 |      8892.0 |      8892.0 |
MCFTHitPacker              INFO Number of counters : 1
 |    Counter                                      |     #     |    sum     | mean/eff^* | rms/err^*  |     min     |     max     |
 | "# PackedData"                                  |         1 |       3211 |     3211.0 |      0.0000 |      3211.0 |      3211.0 |
MCHcalHitPacker            INFO Number of counters : 1
 |    Counter                                      |     #     |    sum     | mean/eff^* | rms/err^*  |     min     |     max     |
 | "# PackedData"                                  |         1 |       1233 |     1233.0 |      0.0000 |      1233.0 |      1233.0 |
MCMuonHitPacker            INFO Number of counters : 1
 |    Counter                                      |     #     |    sum     | mean/eff^* | rms/err^*  |     min     |     max     |
 | "# PackedData"                                  |         1 |        166 |     166.00 |      0.0000 |      166.00 |      166.00 |
MCRichHitPacker            INFO Number of counters : 1
 |    Counter                                      |     #     |    sum     | mean/eff^* | rms/err^*  |     min     |     max     |
 | "# PackedData"                                  |         1 |       6247 |     6247.0 |      0.0000 |      6247.0 |      6247.0 |
MCRichOpPhotPacker         INFO Number of counters : 1
 |    Counter                                      |     #     |    sum     | mean/eff^* | rms/err^*  |     min     |     max     |
 | "# PackedData"                                  |         1 |       6228 |     6228.0 |      0.0000 |      6228.0 |      6228.0 |
MCRichSegmentPacker        INFO Number of counters : 1
 |    Counter                                      |     #     |    sum     | mean/eff^* | rms/err^*  |     min     |     max     |
 | "# PackedData"                                  |         1 |        350 |     350.00 |      0.0000 |      350.00 |      350.00 |
MCRichTrackPacker          INFO Number of counters : 1
 |    Counter                                      |     #     |    sum     | mean/eff^* | rms/err^*  |     min     |     max     |
 | "# PackedData"                                  |         1 |        288 |     288.00 |      0.0000 |      288.00 |      288.00 |
MCUTHitPacker              INFO Number of counters : 1
 |    Counter                                      |     #     |    sum     | mean/eff^* | rms/err^*  |     min     |     max     |
 | "# PackedData"                                  |         1 |       1097 |     1097.0 |      0.0000 |      1097.0 |      1097.0 |
MCVPHitPacker              INFO Number of counters : 1
 |    Counter                                      |     #     |    sum     | mean/eff^* | rms/err^*  |     min     |     max     |
 | "# PackedData"                                  |         1 |        447 |     447.00 |      0.0000 |      447.00 |      447.00 |
MainEventGaussSim.Mai...   INFO Number of counters : 1
 |    Counter                                      |     #     |    sum     | mean/eff^* | rms/err^*  |     min     |     max     |
UTHitMonitor               INFO Number of counters : 3
 |    Counter                                      |     #     |    sum     | mean/eff^* | rms/err^*  |     min     |     max     |
 | "DeltaRay"                                      |        93 |
 | "betaGamma"                                     |      1097 |    1180945 |     1076.5 |
 | "numberHits"                                    |         1 |       1097 |     1097.0 |
UnpackEcalHits             INFO Number of counters : 1
 |    Counter                                      |     #     |    sum     | mean/eff^* | rms/err^*  |     min     |     max     |
 | "# UnPackedData"                                |         1 |       8892 |     8892.0 |      0.0000 |      8892.0 |      8892.0 |
UnpackFTHits               INFO Number of counters : 1
 |    Counter                                      |     #     |    sum     | mean/eff^* | rms/err^*  |     min     |     max     |
 | "# UnPackedData"                                |         1 |       3211 |     3211.0 |      0.0000 |      3211.0 |      3211.0 |
UnpackHcalHits             INFO Number of counters : 1
 |    Counter                                      |     #     |    sum     | mean/eff^* | rms/err^*  |     min     |     max     |
 | "# UnPackedData"                                |         1 |       1233 |     1233.0 |      0.0000 |      1233.0 |      1233.0 |
UnpackMuonHits             INFO Number of counters : 1
 |    Counter                                      |     #     |    sum     | mean/eff^* | rms/err^*  |     min     |     max     |
 | "# UnPackedData"                                |         1 |        166 |     166.00 |      0.0000 |      166.00 |      166.00 |
UnpackRichHits             INFO Number of counters : 1
 |    Counter                                      |     #     |    sum     | mean/eff^* | rms/err^*  |     min     |     max     |
 | "# UnPackedData"                                |         1 |       6247 |     6247.0 |      0.0000 |      6247.0 |      6247.0 |
UnpackRichOpPhot           INFO Number of counters : 1
 |    Counter                                      |     #     |    sum     | mean/eff^* | rms/err^*  |     min     |     max     |
 | "# UnPackedData"                                |         1 |       6228 |     6228.0 |      0.0000 |      6228.0 |      6228.0 |
UnpackRichSegments         INFO Number of counters : 1
 |    Counter                                      |     #     |    sum     | mean/eff^* | rms/err^*  |     min     |     max     |
 | "# UnPackedData"                                |         1 |        350 |     350.00 |      0.0000 |      350.00 |      350.00 |
UnpackRichTracks           INFO Number of counters : 1
 |    Counter                                      |     #     |    sum     | mean/eff^* | rms/err^*  |     min     |     max     |
 | "# UnPackedData"                                |         1 |        288 |     288.00 |      0.0000 |      288.00 |      288.00 |
UnpackUTHits               INFO Number of counters : 1
 |    Counter                                      |     #     |    sum     | mean/eff^* | rms/err^*  |     min     |     max     |
 | "# UnPackedData"                                |         1 |       1097 |     1097.0 |      0.0000 |      1097.0 |      1097.0 |
UnpackVPHits               INFO Number of counters : 1
 |    Counter                                      |     #     |    sum     | mean/eff^* | rms/err^*  |     min     |     max     |
 | "# UnPackedData"                                |         1 |        447 |     447.00 |      0.0000 |      447.00 |      447.00 |
